…
``` r
# install.packages("devtools")
devtools::install_github("cboettig/neonstore")
```

## Quickstart

Discover data products of interest:

``` r
products <- neon_products()

i <- grepl("Populations", products$themes)
products[i, c("productCode", "productName")]
#> # A tibble: 50 x 2
#>    productCode   productName                                  
#>    <chr>         <chr>                                        
#>  1 DP1.00033.001 Phenology images                             
#>  2 DP1.10003.001 Breeding landbird point counts               
#>  3 DP1.10010.001 Coarse downed wood log survey                
#>  4 DP1.10020.001 Ground beetle sequences DNA barcode          
#>  5 DP1.10022.001 Ground beetles sampled from pitfall traps    
#>  6 DP1.10026.001 Plant foliar physical and chemical properties
#>  7 DP1.10033.001 Litterfall and fine woody debris sampling    
#>  8 DP1.10038.001 Mosquito sequences DNA barcode               
#>  9 DP1.10041.001 Mosquito-borne pathogen status               
#> 10 DP1.10043.001 Mosquitoes sampled from CO2 traps            
#> # … with 40 more rows
…
``` r
neon_read("brd_countdata-expanded")
#> Rows: 164,782
#> Columns: 24
#> Delimiter: ","
#> chr  [19]: uid, namedLocation, domainID, siteID, plotID, plotType, pointID, eventID, targe...
#> dbl  [ 3]: pointCountMinute, observerDistance, clusterSize
#> lgl  [ 1]: clusterCode
#> dttm [ 1]: startDate
#> 
#> Use `spec()` to retrieve the guessed column specification
#> Pass a specification to the `col_types` argument to quiet this message
#> # A tibble: 164,782 x 24
#>    uid   namedLocation domainID siteID plotID plotType pointID
#>    <chr> <chr>         <chr>    <chr>  <chr>  <chr>    <chr>  
#>  1 ad84… BART_025.bir… D01      BART   BART_… distrib… C1     
#>  2 2115… BART_025.bir… D01      BART   BART_… distrib… C1     
#>  3 0592… BART_025.bir… D01      BART   BART_… distrib… C1     
#>  4 8e5a… BART_025.bir… D01      BART   BART_… distrib… C1     
#>  5 9b07… BART_025.bir… D01      BART   BART_… distrib… C1     
#>  6 145f… BART_025.bir… D01      BART   BART_… distrib… B1     
#>  7 f70e… BART_025.bir… D01      BART   BART_… distrib… B1     
#>  8 648b… BART_025.bir… D01      BART   BART_… distrib… B1     
#>  9 2295… BART_025.bir… D01      BART   BART_… distrib… B1     
#> 10 cc6d… BART_025.bir… D01      BART   BART_… distrib… A1     
#> # … with 164,772 more rows, and 17 more variables: startDate <dttm>,
#> #   eventID <chr>, pointCountMinute <dbl>, targetTaxaPresent <chr>,
#> #   taxonID <chr>, scientificName <chr>, taxonRank <chr>, vernacularName <chr>,
#> #   family <chr>, nativeStatusCode <chr>, observerDistance <dbl>,
#> #   detectionMethod <chr>, visualConfirmation <chr>, sexOrAge <chr>,
#> #   clusterSize <dbl>, clusterCode <lgl>, identifiedBy <chr>
```
…
We can list precisely which component files are being read in by
`neon_read()` by consulting `neon_index()`:

``` r
raw_files <- neon_index(table = "brd_countdata-expanded")
raw_files
#> # A tibble: 204 x 9
#>    site   product  table   month  type   timestamp ext   path          hash     
#>    <chr>  <chr>    <chr>   <chr>  <chr>  <chr>     <chr> <chr>         <chr>    
#>  1 NEON.… DP1.100… brd_co… 2015-… expan… 20191107… csv   /tmp/Rtmpwrk… hash://m…
#>  2 NEON.… DP1.100… brd_co… 2016-… expan… 20191107… csv   /tmp/Rtmpwrk… hash://m…
#>  3 NEON.… DP1.100… brd_co… 2017-… expan… 20191107… csv   /tmp/Rtmpwrk… hash://m…
#>  4 NEON.… DP1.100… brd_co… 2018-… expan… 20191107… csv   /tmp/Rtmpwrk… hash://m…
#>  5 NEON.… DP1.100… brd_co… 2019-… expan… 20191205… csv   /tmp/Rtmpwrk… hash://m…
#>  6 NEON.… DP1.100… brd_co… 2015-… expan… 20191107… csv   /tmp/Rtmpwrk… hash://m…
#>  7 NEON.… DP1.100… brd_co… 2015-… expan… 20191107… csv   /tmp/Rtmpwrk… hash://m…
#>  8 NEON.… DP1.100… brd_co… 2016-… expan… 20191107… csv   /tmp/Rtmpwrk… hash://m…
#>  9 NEON.… DP1.100… brd_co… 2017-… expan… 20191107… csv   /tmp/Rtmpwrk… hash://m…
#> 10 NEON.… DP1.100… brd_co… 2018-… expan… 20191107… csv   /tmp/Rtmpwrk… hash://m…
#> # … with 194 more rows
```
…
