read in neon tabular data — neon_read • neonstore
…
    Examples

neon_read("brd_countdata-expanded")

#> Warning: number of columns of result is not a multiple of vector length (arg 1)
#>   Some raw data files have changed.
#>   Using only most updated file to avoid duplicates.
#>   see ?neonstore::show_deprecated_data() for details.
#> # A tibble: 4,654 x 24
#>    uid                namedLocation     domainID siteID plotID plotType  pointID
#>    <chr>              <chr>             <chr>    <chr>  <chr>  <chr>     <chr>  
#>  1 bb46d0cc-0102-449… YELL_009.birdGri… D12      YELL   YELL_… distribu… C3     
#>  2 f252dd4d-6684-4e3… YELL_009.birdGri… D12      YELL   YELL_… distribu… C3     
#>  3 b2d4cb65-38ec-42a… YELL_009.birdGri… D12      YELL   YELL_… distribu… C3     
#>  4 2882f646-59ce-47f… YELL_009.birdGri… D12      YELL   YELL_… distribu… C3     
#>  5 2aa0d21f-fdc4-496… YELL_009.birdGri… D12      YELL   YELL_… distribu… C3     
#>  6 61d465df-d551-48a… YELL_009.birdGri… D12      YELL   YELL_… distribu… C3     
#>  7 ea1ffb98-fceb-486… YELL_009.birdGri… D12      YELL   YELL_… distribu… C3     
#>  8 4d3f6161-26bc-401… YELL_009.birdGri… D12      YELL   YELL_… distribu… C3     
#>  9 a93bf746-0df8-462… YELL_009.birdGri… D12      YELL   YELL_… distribu… C3     
#> 10 643c9113-2906-4d1… YELL_009.birdGri… D12      YELL   YELL_… distribu… C3     
#> # … with 4,644 more rows, and 17 more variables: startDate <dttm>,
#> #   eventID <chr>, pointCountMinute <dbl>, targetTaxaPresent <chr>,
#> #   taxonID <chr>, scientificName <chr>, taxonRank <chr>, vernacularName <chr>,
#> #   family <chr>, nativeStatusCode <chr>, observerDistance <dbl>,
#> #   detectionMethod <chr>, visualConfirmation <chr>, sexOrAge <chr>,
#> #   clusterSize <dbl>, clusterCode <chr>, identifiedBy <chr>

## Sensor inputs will add metadata columns by default
neon_read("waq_instantaneous", site = c("CRAM","SUGG"))

#> Warning: number of columns of result is not a multiple of vector length (arg 1)
#> # A tibble: 65,666 x 34
#>    startDateTime       endDateTime         sensorDepth sensorDepthExpUncert
#>    <dttm>              <dttm>                    <dbl> <chr>               
#>  1 2019-04-28 00:00:00 2019-04-28 00:00:00          NA NA                  
#>  2 2019-04-28 00:05:00 2019-04-28 00:05:00          NA NA                  
#>  3 2019-04-28 00:10:00 2019-04-28 00:10:00          NA NA                  
#>  4 2019-04-28 00:15:00 2019-04-28 00:15:00          NA NA                  
#>  5 2019-04-28 00:20:00 2019-04-28 00:20:00          NA NA                  
#>  6 2019-04-28 00:25:00 2019-04-28 00:25:00          NA NA                  
#>  7 2019-04-28 00:30:00 2019-04-28 00:30:00          NA NA                  
#>  8 2019-04-28 00:35:00 2019-04-28 00:35:00          NA NA                  
#>  9 2019-04-28 00:40:00 2019-04-28 00:40:00          NA NA                  
#> 10 2019-04-28 00:45:00 2019-04-28 00:45:00          NA NA                  
#> # … with 65,656 more rows, and 30 more variables: sensorDepthFinalQF <chr>,
#> #   specificConductance <dbl>, specificConductanceExpUncert <dbl>,
#> #   specificCondFinalQF <dbl>, dissolvedOxygen <dbl>,
#> #   dissolvedOxygenExpUncert <dbl>, dissolvedOxygenFinalQF <dbl>,
#> #   dissolvedOxygenSaturation <dbl>, dissolvedOxygenSatExpUncert <dbl>,
#> #   dissolvedOxygenSatFinalQF <dbl>, pH <dbl>, pHExpUncert <dbl>,
#> #   pHFinalQF <dbl>, chlorophyll <dbl>, chlorophyllExpUncert <dbl>,
#> #   chlorophyllFinalQF <dbl>, turbidity <dbl>, turbidityExpUncert <dbl>,
#> #   turbidityFinalQF <dbl>, fDOM <chr>, rawCalibratedfDOM <dbl>,
…
